Id,Name,Price
CA06E2F2-AFB3-D0CB-2B96-63FD98E9C7AC,dui,25
ABA23B3E-AC81-D1F7-E98C-B033987DC501,orci lobortis augue,10
C6E283B1-8801-E228-563D-797CE305A284,Morbi quis,159
7253E7F9-4470-39D1-D3B2-135FF2FF2D41,pharetra. Nam,164
0F5E7D88-2635-EC34-80DD-BDC49D0A0EAE,ultrices posuere cubilia,69
B02648CB-6FB8-7971-E6DB-FF1154C937F6,Mauris ut quam,81
51A8DDBE-7689-A9F3-F964-A2EF38665257,semper,11
A6AB6355-5BD5-BCD1-EAD2-A0FE1D42BECF,mi mux,198
3C31CDD4-7985-BBE0-51D3-9D7620C708C3,at velit,118
B8CE3AE8-8C76-D26A-6E69-F2F8152C06E5,lorem lorem,167
6725B691-3562-C2EB-7133-B10F80B242D9,Curabitur massa. Vestibulum,195
DBEB7334-1230-ACD4-E1C6-ABF2C34D6CCD,"eget, dictum",117
18946A80-7C01-6AFE-60F0-1F68DC3C039C,Aenean,203
D842D8C9-AC2A-556F-19C9-8EE6C84A8061,"pede, malesuada",105
FCC15D18-5808-1832-C83B-3BF10A19A6EB,"vel, venenatis vel",25
C07C7BDF-CE69-6349-EE01-7BE69D55E281,non lorem vitae,41
1239F9F5-3884-2AC5-7653-A4AC235801B5,"quis, tristique ac",158
8B756A91-DBC8-D2A5-D29C-A6C4ED4BBA1D,arcu et pede.,111
FF1A0B35-0765-2009-DADA-BF40D919E5F3,"dolor, tempus",129
46383529-A43D-7302-4AE9-4A1F4ED07EF8,"cursus in, hendrerit",87
